o Cube_Cube.001
v -1.000000 1.000000 0.000000
v 1.000000 1.000000 0.000000
v -1.000000 -1.000000 0.000000
v 1.000000 -1.000000 0.000000
vt 1.000000 1.000000
vt 0.000000 1.000000
vt 0.000000 0.000000
vt 1.000000 0.000000
usemtl (null)
s off
f 4/4 1/2 3/3
f 2/1 1/2 4/4
